Siqi Chen - Example_analysis
…
# saves data only once (not each time you knit a R Markdown)
if(!file.exists("board_games.RDS")) {
  url_csv <- 'https://raw.githubusercontent.com/rfordatascience/tidytuesday/master/data/2019/2019-03-12/board_games.csv'
  board_games <- readr::read_csv(url_csv)
  
  # save the file to RDS objects
  saveRDS(board_games, file= "board_games.RDS")
}

Here are some of the libraries I used in this analysis.

board_games <- readRDS("board_games.RDS")
as_tibble(board_games)

# A tibble: 10,532 × 22
   game_id descrip…¹ image max_p…² max_p…³ min_age min_p…⁴ min_p…⁵ name  playi…⁶
     <dbl> <chr>     <chr>   <dbl>   <dbl>   <dbl>   <dbl>   <dbl> <chr>   <dbl>
 1       1 Die Mach… //cf…       5     240      14       3     240 Die …     240
 2       2 Dragonma… //cf…       4      30      12       3      30 Drag…      30
 3       3 Part of … //cf…       4      60      10       2      30 Samu…      60
 4       4 When you… //cf…       4      60      12       2      60 Tal …      60
 5       5 In Acqui… //cf…       6      90      12       3      90 Acqu…      90
 6       6 In the a… //cf…       6     240      12       2     240 Mare…     240
 7       7 In Cathe… //cf…       2      20       8       2      20 Cath…      20
 8       8 In this … //cf…       5     120      12       2     120 Lord…     120
 9       9 Although… //cf…       4      90      13       2      90 El C…      90
10      10 Elfenlan… //cf…       6      60      10       2      60 Elfe…      60
# … with 10,522 more rows, 12 more variables: thumbnail <chr>,
#   year_published <dbl>, artist <chr>, category <chr>, compilation <chr>,
#   designer <chr>, expansion <chr>, family <chr>, mechanic <chr>,
#   publisher <chr>, average_rating <dbl>, users_rated <dbl>, and abbreviated
#   variable names ¹​description, ²​max_players, ³​max_playtime, ⁴​min_players,
#   ⁵​min_playtime, ⁶​playing_time
…
